verilator/dump.vcd
$version Generated by VerilatedVcd $end
$timescale 1ps $end
 $scope module top $end
  $scope module $unit $end
   $var wire 32 g X_I [31:0] $end
   $var wire 32 h X_F [31:0] $end
   $var wire 32 i X_W [31:0] $end
   $var wire 32 j Y_I [31:0] $end
   $var wire 32 h Y_F [31:0] $end
   $var wire 32 k Y_W [31:0] $end
   $var wire 32 g X1_I [31:0] $end
   $var wire 32 l X1_F [31:0] $end
   $var wire 32 m X1_W [31:0] $end
   $var wire 32 n X2_I [31:0] $end
   $var wire 32 o X2_J [31:0] $end
   $var wire 32 p X2_F [31:0] $end
   $var wire 32 p X2_W [31:0] $end
   $var wire 32 q A_I [31:0] $end
   $var wire 32 r A_F [31:0] $end
   $var wire 32 s A_W [31:0] $end
   $var wire 32 q B_I [31:0] $end
   $var wire 32 r B_F [31:0] $end
   $var wire 32 s B_W [31:0] $end
   $var wire 32 q C_I [31:0] $end
   $var wire 32 r C_F [31:0] $end
   $var wire 32 s C_W [31:0] $end
   $var wire 32 q R_F [31:0] $end
   $var wire 32 q S_I [31:0] $end
   $var wire 32 t S_F [31:0] $end
   $var wire 32 u S_W [31:0] $end
   $var wire 32 n SQ_I [31:0] $end
   $var wire 32 i SQ_F [31:0] $end
   $var wire 32 i SQ_W [31:0] $end
   $var wire 32 q T0_I [31:0] $end
   $var wire 32 t T0_F [31:0] $end
   $var wire 32 u T0_W [31:0] $end
   $var wire 32 q T1_I [31:0] $end
   $var wire 32 t T1_F [31:0] $end
   $var wire 32 u T1_W [31:0] $end
   $var wire 32 q T2_I [31:0] $end
   $var wire 32 t T2_F [31:0] $end
   $var wire 32 u T2_W [31:0] $end
  $upscope $end
  $var wire 1 U clk $end
  $var wire 1 V rst_b $end
  $var wire 24 W x [23:0] $end
  $var wire 1 X x_dv $end
  $var wire 25 Y y [24:0] $end
  $var wire 1 Z y_dv $end
  $scope module quadra_top $end
   $var wire 1 U clk $end
   $var wire 1 V rst_b $end
   $var wire 24 W x [23:0] $end
   $var wire 1 X x_dv $end
   $var wire 25 Y y [24:0] $end
   $var wire 1 Z y_dv $end
   $var wire 1 # dv_p0 $end
   $var wire 1 $ dv_p1 $end
   $var wire 1 % dv_p2 $end
   $var wire 7 [ x1_int_d [6:0] $end
   $var wire 7 & x1_int_q [6:0] $end
   $var wire 7 [ x1_int [6:0] $end
   $var wire 17 \ x2_int_d [16:0] $end
   $var wire 17 ' x2_int_q [16:0] $end
   $var wire 17 ( x2_int_q_q [16:0] $end
   $var wire 17 \ x2_int [16:0] $end
   $var wire 24 ) sq_fxd_d [23:0] $end
   $var wire 24 * sq_fxd_q [23:0] $end
   $var wire 32 + a_fxd_d [31:0] $end
   $var wire 32 , a_fxd_q [31:0] $end
   $var wire 32 - b_fxd_d [31:0] $end
   $var wire 32 . b_fxd_q [31:0] $end
   $var wire 32 / c_fxd_d [31:0] $end
   $var wire 32 0 c_fxd_q [31:0] $end
   $var wire 31 1 t0_fxd_d [30:0] $end
   $var wire 31 2 t0_fxd_q [30:0] $end
   $var wire 31 3 t1_fxd_d [30:0] $end
   $var wire 31 4 t1_fxd_q [30:0] $end
   $var wire 31 5 t2_fxd_d [30:0] $end
   $var wire 31 6 t2_fxd_q [30:0] $end
   $var wire 31 7 s_fxd_d [30:0] $end
   $var wire 31 8 s_fxd_q [30:0] $end
   $var wire 62 ] t1_res [61:0] $end
   $var wire 62 _ x2_to_res [61:0] $end
   $var wire 62 a b_to_res [61:0] $end
   $var wire 61 c t1_res_temp [60:0] $end
   $var wire 62 e t2_res [61:0] $end
   $var wire 31 9 x2_to_t1 [30:0] $end
   $var wire 31 : b_to_t1 [30:0] $end
   $var wire 31 ; c_to_t1 [30:0] $end
   $var wire 31 < sq_to_t1 [30:0] $end
   $var wire 31 = t0_to_s [30:0] $end
   $var wire 31 > t1_to_s [30:0] $end
   $var wire 31 ? t2_to_s [30:0] $end
   $var wire 31 @ s_res [30:0] $end
   $scope module l0 $end
    $var wire 7 & x1 [6:0] $end
    $var wire 32 + a [31:0] $end
    $var wire 32 - b [31:0] $end
    $var wire 32 / c [31:0] $end
   $upscope $end
   $scope module m0 $end
    $var wire 31 : x1 [30:0] $end
    $var wire 31 9 x2 [30:0] $end
    $var wire 31 3 y [30:0] $end
    $var wire 1 A sign $end
    $var wire 30 B x1_sign [29:0] $end
    $var wire 30 C x2_sign [29:0] $end
    $var wire 60 D res [59:0] $end
    $var wire 60 F res_sign [59:0] $end
    $var wire 61 H res_final [60:0] $end
   $upscope $end
   $scope module m1 $end
    $var wire 31 ; x1 [30:0] $end
    $var wire 31 < x2 [30:0] $end
    $var wire 31 5 y [30:0] $end
    $var wire 1 J sign $end
    $var wire 30 K x1_sign [29:0] $end
    $var wire 30 L x2_sign [29:0] $end
    $var wire 60 M res [59:0] $end
    $var wire 60 O res_sign [59:0] $end
    $var wire 61 Q res_final [60:0] $end
   $upscope $end
   $scope module s0 $end
    $var wire 17 ' x2 [16:0] $end
    $var wire 24 ) sq [23:0] $end
    $var wire 34 S res [33:0] $end
   $upscope $end
  $upscope $end
 $upscope $end
$enddefinitions $end


#500
0#
0$
1%
b1010011 &
b00001011100100001 '
b00111110111100001 (
b000000001000010110111100 )
b100011001010111111000101 *
b00001111100011001111011111101111 +
b10100100010100011111111101100010 ,
b11111000011110000011001001111011 -
b10101101111110111100100100010010 .
b11100000111001100001000000100011 /
b10110100001100100011101111111101 0
b1010010001010001111111110110001 1
b1011100011010110100000111110100 2
b1111111110101111010101111011011 3
b1000110011011010100110101011000 4
b1111111111111101011001010111111 5
b1010110110100010000100001011100 6
b0000111100110101001100101111010 7
b0101101000111110100010110011110 8
b0000000000001111101111000010000 9
b1010110111111011110010010001001 :
b1011010000110010001110111111110 ;
b0000000000000000100011001010111 <
b1011100011010110100000111110100 =
b1000110011011010100110101011000 >
b1010110110100010000100001011100 ?
b1111001101010011001011110101000 @
1A
b101001000000100001101101110111 B
b000000000001111101111000010000 C
b000000000001010000101010000100100100001100111110100101110000 D
b111111111110101111010101111011011011110011000001011010010000 F
b1111111111110101111010101111011011011110011000001011010010000 H
1J
b100101111001101110001000000010 K
b000000000000000100011001010111 L
b000000000000000010100110101000000011010000110101101010101110 M
b111111111111111101011001010111111100101111001010010101010010 O
b1111111111111111101011001010111111100101111001010010101010010 Q
b0000000010000101101111001001000001 S
0U
1V
b000000000000000000000000 W
0X
b1100110101001100101111010 Y
1Z
b0000000 [
b00000000000000000 \
b10101000100110000010001011111100111101111110001001100110011110 ]
b00011011001010100111000111110101111011001100110001110011101110 _
b01101000110110001010001000101010011000001110110110101100010000 a
b1010110100000110000111101000001000000111110110111111101110110 c
b11010000100010110111000001010001011010010100001110110101100011 e
b00000000000000000000000000000001 g
b00000000000000000000000000010111 h
b00000000000000000000000000011000 i
b00000000000000000000000000000010 j
b00000000000000000000000000011001 k
b00000000000000000000000000000110 l
b00000000000000000000000000000111 m
b00000000000000000000000000000000 n
b11111111111111111111111111111010 o
b00000000000000000000000000010001 p
b00000000000000000000000000000100 q
b00000000000000000000000000011100 r
b00000000000000000000000000100000 s
b00000000000000000000000000011011 t
b00000000000000000000000000011111 u
#1000
0%
b0000000 &
b00000000000000000 '
b00001011100100001 (
b000000000000000000000000 )
b000000001000010110111100 *
b11110100101011111011000011001101 +
b00001111100011001111011111101111 ,
b00010110101000001001111001100110 -
b11111000011110000011001001111011 .
b00010110101000001001111001100110 /
b11100000111001100001000000100011 0
b0000111110001100111101111110111 1
b1010010001010001111111110110001 2
b1111111111111110101000111010100 3
b1111111110101111010101111011011 4
b1111111111111111111111101111111 5
b1111111111111101011001010111111 6
b0000101000111111111010111100100 7
b0000111100110101001100101111010 8
b0000000000000010111001000010000 9
b1111100001111000001100100111101 :
b1110000011100110000100000010001 ;
b0000000000000000000000001000010 <
b1010010001010001111111110110001 =
b1111111110101111010101111011011 >
b1111111111111101011001010111111 ?
b1010001111111110101111001001011 @
b000011110000111110011011000011 B
b000000000000010111001000010000 C
b000000000000000001010111000101011111110001000100001000110000 D
b111111111111111110101000111010100000001110111011110111010000 F
b1111111111111111110101000111010100000001110111011110111010000 H
b001111100011001111011111101111 K
b000000000000000000000001000010 L
b000000000000000000000000010000000010010101111110101110011110 M
b111111111111111111111111101111111101101010000001010001100010 O
b1111111111111111111111111101111111101101010000001010001100010 Q
b0000000000000000000000000000000000 S
1U
b1000111111111010111100100 Y
0Z
#1500
0U
0V
#2000
1U
#2500
0U
1V
#3000
b00000000000000000 (
b000000000000000000000000 *
b11110100101011111011000011001101 ,
b00010110101000001001111001100110 .
b00010110101000001001111001100110 0
b1111010010101111101100001100110 1
b0000111110001100111101111110111 2
b0000000000000000000000000000000 3
b1111111111111110101000111010100 4
b0000000000000000000000000000000 5
b1111111111111111111111101111111 6
b0000000011111000101110011010100 7
b0000101000111111111010111100100 8
b0000000000000000000000000000000 9
b0001011010100000100111100110011 :
b0001011010100000100111100110011 ;
b0000000000000000000000000000000 <
b0000111110001100111101111110111 =
b1111111111111110101000111010100 >
b1111111111111111111111101111111 ?
b0000111110001011100110101001010 @
0A
b001011010100000100111100110011 B
b000000000000000000000000000000 C
b000000000000000000000000000000000000000000000000000000000000 D
b000000000000000000000000000000000000000000000000000000000000 F
b0000000000000000000000000000000000000000000000000000000000000 H
0J
b001011010100000100111100110011 K
b000000000000000000000000000000 L
b000000000000000000000000000000000000000000000000000000000000 M
b000000000000000000000000000000000000000000000000000000000000 O
b0000000000000000000000000000000000000000000000000000000000000 Q
1U
b0011111000101110011010100 Y
#3500
0U
#4000
b1111010010101111101100001100110 2
b0000000000000000000000000000000 4
b0000000000000000000000000000000 6
b0000111101001010111110110000110 7
b0000000011111000101110011010100 8
b1111010010101111101100001100110 =
b0000000000000000000000000000000 >
b0000000000000000000000000000000 ?
b1111010010101111101100001100110 @
1U
b1101001010111110110000110 Y
#4500
0U
#5000
b0000111101001010111110110000110 8
1U
#5500
0U
#6000
1U
#6500
0U
#7000
1U
#7500
0U
#8000
1U
#8500
0U
#9000
1U
#9500
0U
#10000
1U
#10500
0U
#11000
1U
#11500
0U
#12000
1U
#12500
0U
#13000
1U
#13500
0U
#14000
1U
#14500
0U
#15000
1U
#15500
0U
b101010111100110111100000 W
1X
b1010101 [
b11100110111100000 \
#16000
1#
b1010101 &
b11100110111100000 '
b110100000101010000100001 )
b00001111010010001111110110110110 +
b11110110100010101010100111111111 -
b11100001011011100000010010010100 /
b1101000001010100001000010000000000 S
1U
#16500
0U
#17000
1$
b11100110111100000 (
b110100000101010000100001 *
b00001111010010001111110110110110 ,
b11110110100010101010100111111111 .
b11100001011011100000010010010100 0
b0000111101001000111111011011011 1
b1111111111011101110111101101101 3
b1111111111111110011100011111010 5
b0000000000111001101111000000000 9
b1111011010001010101010011111111 :
b1110000101101110000001001001010 ;
b0000000000000000110100000101010 <
1A
b000100101110101010101100000001 B
b000000000111001101111000000000 C
b000000000000100010001000010010010100011001101101111000000000 D
b111111111111011101110111101101101011100110010010001000000000 F
b1111111111111011101110111101101101011100110010010001000000000 H
1J
b001111010010001111110110110110 K
b000000000000000110100000101010 L
b000000000000000001100011100000101001000010111000111111011100 M
b111111111111111110011100011111010110111101000111000000100100 O
b1111111111111111110011100011111010110111101000111000000100100 Q
1U
#17500
0U
#18000
1%
b0000111101001000111111011011011 2
b1111111111011101110111101101101 4
b1111111111111110011100011111010 6
b0000000011110010010101001110100 7
b0000111101001000111111011011011 =
b1111111111011101110111101101101 >
b1111111111111110011100011111010 ?
b0000111100100101010011101000010 @
1U
b0011110010010101001110100 Y
1Z
#18500
0U
b101010111100110111100001 W
b11100110111100001 \
#19000
b11100110111100001 '
b110100000101010100000111 )
b0000000011110010010101001110100 8
b1101000001010101000001111111000001 S
1U
#19500
0U
#20000
b11100110111100001 (
b110100000101010100000111 *
b1111111111011101110111101100011 3
b0000000000111001101111000010000 9
b000000000111001101111000010000 C
b000000000000100010001000010011100000000100011000111000010000 D
b111111111111011101110111101100011111111011100111000111110000 F
b1111111111111011101110111101100011111111011100111000111110000 H
1U
#20500
0U
#21000
b1111111111011101110111101100011 4
b0000000011110010010101001110011 7
b1111111111011101110111101100011 >
b0000111100100101010011100111000 @
1U
b0011110010010101001110011 Y
#21500
0U
b101010111100110111100010 W
b11100110111100010 \
#22000
b11100110111100010 '
b110100000101010111101110 )
b0000000011110010010101001110011 8
b1101000001010101111011101110000100 S
1U
#22500
0U
#23000
b11100110111100010 (
b110100000101010111101110 *
b1111111111011101110111101011010 3
b0000000000111001101111000100000 9
b000000000111001101111000100000 C
b000000000000100010001000010100101011101111000011111000100000 D
b111111111111011101110111101011010100010000111100000111100000 F
b1111111111111011101110111101011010100010000111100000111100000 H
1U
#23500
0U
#24000
b1111111111011101110111101011010 4
b0000000011110010010101001110010 7
b1111111111011101110111101011010 >
b0000111100100101010011100101111 @
1U
b0011110010010101001110010 Y
#24500
0U
b101010111100110111100011 W
b11100110111100011 \
#25000
b11100110111100011 '
b110100000101011011010101 )
b0000000011110010010101001110010 8
b1101000001010110110101011101001001 S
1U
#25500
0U
#26000
b11100110111100011 (
b110100000101011011010101 *
b1111111111011101110111101010001 3
b1111111111111110011100011111000 5
b0000000000111001101111000110000 9
b0000000000000000110100000101011 <
b000000000111001101111000110000 C
b000000000000100010001000010101110111011001101110111000110000 D
b111111111111011101110111101010001000100110010001000111010000 F
b1111111111111011101110111101010001000100110010001000111010000 H
b000000000000000110100000101011 L
b000000000000000001100011100000111000010101001000110110010010 M
b111111111111111110011100011111000111101010110111001001101110 O
b1111111111111111110011100011111000111101010110111001001101110 Q
1U
#26500
0U
#27000
b1111111111011101110111101010001 4
b1111111111111110011100011111000 6
b1111111111011101110111101010001 >
b1111111111111110011100011111000 ?
b0000111100100101010011100100100 @
1U
#27500
0U
b101010111100110111100100 W
b11100110111100100 \
#28000
b11100110111100100 '
b110100000101011110111100 )
b1101000001010111101111001100010000 S
1U
#28500
0U
#29000
b11100110111100100 (
b110100000101011110111100 *
b1111111111011101110111101000111 3
b0000000000111001101111001000000 9
b000000000111001101111001000000 C
b000000000000100010001000010111000011000100011001111001000000 D
b111111111111011101110111101000111100111011100110000111000000 F
b1111111111111011101110111101000111100111011100110000111000000 H
1U
#29500
0U
#30000
b1111111111011101110111101000111 4
b0000000011110010010101001110001 7
b1111111111011101110111101000111 >
b0000111100100101010011100011010 @
1U
b0011110010010101001110001 Y
#30500
0U
b101010111100110111100101 W
b11100110111100101 \
#31000
b11100110111100101 '
b110100000101100010100011 )
b0000000011110010010101001110001 8
b1101000001011000101000111011011001 S
1U
#31500
0U
#32000
b11100110111100101 (
b110100000101100010100011 *
b1111111111011101110111100111110 3
b1111111111111110011100011110111 5
b0000000000111001101111001010000 9
b0000000000000000110100000101100 <
b000000000111001101111001010000 C
b000000000000100010001000011000001110101111000100111001010000 D
b111111111111011101110111100111110001010000111011000110110000 F
b1111111111111011101110111100111110001010000111011000110110000 H
b000000000000000110100000101100 L
b000000000000000001100011100001000111100111011000101101001000 M
b111111111111111110011100011110111000011000100111010010111000 O
b1111111111111111110011100011110111000011000100111010010111000 Q
1U
#32500
0U
#33000
b1111111111011101110111100111110 4
b1111111111111110011100011110111 6
b1111111111011101110111100111110 >
b1111111111111110011100011110111 ?
b0000111100100101010011100010000 @
1U
#33500
0U
b101010111100110111100110 W
b11100110111100110 \
#34000
b11100110111100110 '
b110100000101100110001010 )
b1101000001011001100010101010100100 S
1U
#34500
0U
#35000
b11100110111100110 (
b110100000101100110001010 *
b1111111111011101110111100110100 3
b0000000000111001101111001100000 9
b000000000111001101111001100000 C
b000000000000100010001000011001011010011001101111111001100000 D
b111111111111011101110111100110100101100110010000000110100000 F
b1111111111111011101110111100110100101100110010000000110100000 H
1U
#35500
0U
#36000
b1111111111011101110111100110100 4
b0000000011110010010101001110000 7
b1111111111011101110111100110100 >
b0000111100100101010011100000110 @
1U
b0011110010010101001110000 Y
#36500
0U
b101010111100110111100111 W
b11100110111100111 \
#37000
b11100110111100111 '
b110100000101101001110001 )
b0000000011110010010101001110000 8
b1101000001011010011100011001110001 S
1U
#37500
0U
#38000
b11100110111100111 (
b110100000101101001110001 *
b1111111111011101110111100101011 3
b1111111111111110011100011110101 5
b0000000000111001101111001110000 9
b0000000000000000110100000101101 <
b000000000111001101111001110000 C
b000000000000100010001000011010100110000100011010111001110000 D
b111111111111011101110111100101011001111011100101000110010000 F
b1111111111111011101110111100101011001111011100101000110010000 H
b000000000000000110100000101101 L
b000000000000000001100011100001010110111001101000100011111110 M
b111111111111111110011100011110101001000110010111011100000010 O
b1111111111111111110011100011110101001000110010111011100000010 Q
1U
#38500
0U
#39000
b1111111111011101110111100101011 4
b1111111111111110011100011110101 6
b0000000011110010010101001101111 7
b1111111111011101110111100101011 >
b1111111111111110011100011110101 ?
b0000111100100101010011011111011 @
1U
b0011110010010101001101111 Y
#39500
0U
b101010111100110111101000 W
b11100110111101000 \
#40000
b11100110111101000 '
b110100000101101101011000 )
b0000000011110010010101001101111 8
b1101000001011011010110001001000000 S
1U
#40500
0U
#41000
b11100110111101000 (
b110100000101101101011000 *
b1111111111011101110111100100001 3
b0000000000111001101111010000000 9
b000000000111001101111010000000 C
b000000000000100010001000011011110001101111000101111010000000 D
b111111111111011101110111100100001110010000111010000110000000 F
b1111111111111011101110111100100001110010000111010000110000000 H
1U
#41500
0U
#42000
b1111111111011101110111100100001 4
b1111111111011101110111100100001 >
b0000111100100101010011011110001 @
1U
#42500
0U
b101010111100110111101001 W
b11100110111101001 \
#43000
b11100110111101001 '
b110100000101110000111111 )
b1101000001011100001111111000010001 S
1U
#43500
0U
#44000
b11100110111101001 (
b110100000101110000111111 *
b1111111111011101110111100011000 3
b1111111111111110011100011110011 5
b0000000000111001101111010010000 9
b0000000000000000110100000101110 <
b000000000111001101111010010000 C
b000000000000100010001000011100111101011001110000111010010000 D
b111111111111011101110111100011000010100110001111000101110000 F
b1111111111111011101110111100011000010100110001111000101110000 H
b000000000000000110100000101110 L
b000000000000000001100011100001100110001011111000011010110100 M
b111111111111111110011100011110011001110100000111100101001100 O
b1111111111111111110011100011110011001110100000111100101001100 Q
1U
#44500
0U
#45000
b1111111111011101110111100011000 4
b1111111111111110011100011110011 6
b0000000011110010010101001101110 7
b1111111111011101110111100011000 >
b1111111111111110011100011110011 ?
b0000111100100101010011011100110 @
1U
b0011110010010101001101110 Y
#45500
0U
b101010111100110111101010 W
b11100110111101010 \
#46000
b11100110111101010 '
b110100000101110100100110 )
b0000000011110010010101001101110 8
b1101000001011101001001100111100100 S
1U
#46500
0U
#47000
b11100110111101010 (
b110100000101110100100110 *
b1111111111011101110111100001110 3
b0000000000111001101111010100000 9
b000000000111001101111010100000 C
b000000000000100010001000011110001001000100011011111010100000 D
b111111111111011101110111100001110110111011100100000101100000 F
b1111111111111011101110111100001110110111011100100000101100000 H
1U
#47500
0U
#48000
b1111111111011101110111100001110 4
b0000000011110010010101001101101 7
b1111111111011101110111100001110 >
b0000111100100101010011011011100 @
1U
b0011110010010101001101101 Y
#48500
0U
b101010111100110111101011 W
b11100110111101011 \
#49000
b11100110111101011 '
b110100000101111000001101 )
b0000000011110010010101001101101 8
b1101000001011110000011010110111001 S
1U
#49500
0U
#50000
b11100110111101011 (
b110100000101111000001101 *
b1111111111011101110111100000101 3
b1111111111111110011100011110001 5
b0000000000111001101111010110000 9
b0000000000000000110100000101111 <
b000000000111001101111010110000 C
b000000000000100010001000011111010100101111000110111010110000 D
b111111111111011101110111100000101011010000111001000101010000 F
b1111111111111011101110111100000101011010000111001000101010000 H
b000000000000000110100000101111 L
b000000000000000001100011100001110101011110001000010001101010 M
b111111111111111110011100011110001010100001110111101110010110 O
b1111111111111111110011100011110001010100001110111101110010110 Q
1U
#50500
0U
#51000
b1111111111011101110111100000101 4
b1111111111111110011100011110001 6
b1111111111011101110111100000101 >
b1111111111111110011100011110001 ?
b0000111100100101010011011010001 @
1U
#51500
0U
b101010111100110111101100 W
b11100110111101100 \
#52000
b11100110111101100 '
b110100000101111011110100 )
b1101000001011110111101000110010000 S
1U
#52500
0U
#53000
b11100110111101100 (
b110100000101111011110100 *
b1111111111011101110111011111011 3
b0000000000111001101111011000000 9
b000000000111001101111011000000 C
b000000000000100010001000100000100000011001110001111011000000 D
b111111111111011101110111011111011111100110001110000101000000 F
b1111111111111011101110111011111011111100110001110000101000000 H
1U
#53500
0U
#54000
b1111111111011101110111011111011 4
b0000000011110010010101001101100 7
b1111111111011101110111011111011 >
b0000111100100101010011011000111 @
1U
b0011110010010101001101100 Y
#54500
0U
b101010111100110111101101 W
b11100110111101101 \
#55000
b11100110111101101 '
b110100000101111111011011 )
b0000000011110010010101001101100 8
b1101000001011111110110110101101001 S
1U
#55500
0U
#56000
b11100110111101101 (
b110100000101111111011011 *
b1111111111011101110111011110010 3
b0000000000111001101111011010000 9
b000000000111001101111011010000 C
b000000000000100010001000100001101100000100011100111011010000 D
b111111111111011101110111011110010011111011100011000100110000 F
b1111111111111011101110111011110010011111011100011000100110000 H
1U
#56500
0U
#57000
b1111111111011101110111011110010 4
b0000000011110010010101001101011 7
b1111111111011101110111011110010 >
b0000111100100101010011010111110 @
1U
b0011110010010101001101011 Y
#57500
0U
b101010111100110111101110 W
b11100110111101110 \
#58000
b11100110111101110 '
b110100000110000011000010 )
b0000000011110010010101001101011 8
b1101000001100000110000100101000100 S
1U
#58500
0U
#59000
b11100110111101110 (
b110100000110000011000010 *
b1111111111011101110111011101001 3
b1111111111111110011100011101111 5
b0000000000111001101111011100000 9
b0000000000000000110100000110000 <
b000000000111001101111011100000 C
b000000000000100010001000100010110111101111000111111011100000 D
b111111111111011101110111011101001000010000111000000100100000 F
b1111111111111011101110111011101001000010000111000000100100000 H
b000000000000000110100000110000 L
b000000000000000001100011100010000100110000011000001000100000 M
b111111111111111110011100011101111011001111100111110111100000 O
b1111111111111111110011100011101111011001111100111110111100000 Q
1U
#59500
0U
#60000
b1111111111011101110111011101001 4
b1111111111111110011100011101111 6
b1111111111011101110111011101001 >
b1111111111111110011100011101111 ?
b0000111100100101010011010110011 @
1U
#60500
0U
b101010111100110111101111 W
b11100110111101111 \
#61000
b11100110111101111 '
b110100000110000110101001 )
b1101000001100001101010010100100001 S
1U
#61500
0U
#62000
b11100110111101111 (
b110100000110000110101001 *
b1111111111011101110111011011111 3
b0000000000111001101111011110000 9
b000000000111001101111011110000 C
b000000000000100010001000100100000011011001110010111011110000 D
b111111111111011101110111011011111100100110001101000100010000 F
b1111111111111011101110111011011111100100110001101000100010000 H
1U
#62500
0U
#63000
b1111111111011101110111011011111 4
b0000000011110010010101001101010 7
b1111111111011101110111011011111 >
b0000111100100101010011010101001 @
1U
b0011110010010101001101010 Y
#63500
0U
b000000000000000000000000 W
0X
b0000000 [
b00000000000000000 \
#64000
0#
b0000000 &
b00000000000000000 '
b000000000000000000000000 )
b11110100101011111011000011001101 +
b00010110101000001001111001100110 -
b00010110101000001001111001100110 /
b0000000011110010010101001101010 8
b0000000000000000000000000000000000 S
1U
#64500
0U
#65000
0$
b00000000000000000 (
b000000000000000000000000 *
b11110100101011111011000011001101 ,
b00010110101000001001111001100110 .
b00010110101000001001111001100110 0
b1111010010101111101100001100110 1
b0000000000000000000000000000000 3
b0000000000000000000000000000000 5
b0000000000000000000000000000000 9
b0001011010100000100111100110011 :
b0001011010100000100111100110011 ;
b0000000000000000000000000000000 <
0A
b001011010100000100111100110011 B
b000000000000000000000000000000 C
b000000000000000000000000000000000000000000000000000000000000 D
b000000000000000000000000000000000000000000000000000000000000 F
b0000000000000000000000000000000000000000000000000000000000000 H
0J
b001011010100000100111100110011 K
b000000000000000000000000000000 L
b000000000000000000000000000000000000000000000000000000000000 M
b000000000000000000000000000000000000000000000000000000000000 O
b0000000000000000000000000000000000000000000000000000000000000 Q
1U
#65500
0U
#66000
0%
b1111010010101111101100001100110 2
b0000000000000000000000000000000 4
b0000000000000000000000000000000 6
b0000111101001010111110110000110 7
b1111010010101111101100001100110 =
b0000000000000000000000000000000 >
b0000000000000000000000000000000 ?
b1111010010101111101100001100110 @
1U
b1101001010111110110000110 Y
0Z
#66500
0U
#67000
b0000111101001010111110110000110 8
1U
